Bike Data
…
So they added more stations throughout the district that they serve, instead of adding several new stations to a single neighborhood all at once. Good to know.

Now, I wonder how many bikes can be parked at each station (as of August 31,2016)?

Well that’s weird, some of the stations have a dock count of 0. I’m assuming they didn’t start that way. Let’s calculate the change in dock count from station installation to August 31, 2016 and plot it on a map.

\(\bf Change in Number of Bike Docks Per Station\)

dock_change <- station %>% group_by(station_id) %>% select(station_id, 
    long, lat, ends_with("dockcount")) %>% mutate(dock_change = current_dockcount - 
    install_dockcount)
dock_change %>%
group_by()

# A tibble: 58 x 6
   station_id      long      lat install_dockcount current_dockcount
        <chr>     <dbl>    <dbl>             <int>             <int>
 1      BT-01 -122.3510 47.61842                18                18
 2      BT-03 -122.3486 47.61583                16                16
 3      BT-04 -122.3411 47.61609                16                16
 4      BT-05 -122.3442 47.61311                14                14
 5     CBD-03 -122.3324 47.61073                20                20
 6     CBD-04 -122.3356 47.60922                18                18
 7     CBD-05 -122.3358 47.60406                20                20
 8     CBD-06 -122.3358 47.60595                20                18
 9     CBD-07 -122.3304 47.60351                20                20
10     CBD-13 -122.3396 47.61019                18                18
# ... with 48 more rows, and 1 more variables: dock_change <int>
…
